processor.vcd
$version Generated by VerilatedVcd $end
$date Mon Feb  9 01:23:00 2026
 $end
$timescale   1ps $end

 $scope module TOP $end
  $var wire  1 :! clk $end
  $var wire  1 ;! rst_n $end
  $scope module tb_processor $end
   $var wire  1 :! clk $end
   $var wire 64 ' dmem_addr [63:0] $end
   $var wire 64 <! dmem_rdata [63:0] $end
   $var wire  3 , dmem_size [2:0] $end
   $var wire 64 ) dmem_wdata [63:0] $end
   $var wire  1 - dmem_we $end
   $var wire  1 $ halt $end
   $var wire 32 >! halt_counter [31:0] $end
   $var wire 64 % imem_addr [63:0] $end
   $var wire 32 + instr [31:0] $end
   $var wire  1 ;! rst_n $end
   $scope module dmem $end
    $var wire 64 ' addr [63:0] $end
    $var wire  1 :! clk $end
    $var wire 64 <! rdata [63:0] $end
    $var wire 64 ) wdata [63:0] $end
    $var wire  1 - we $end
   $upscope $end
   $scope module dut $end
    $var wire 64 P alu_in1 [63:0] $end
    $var wire 64 R alu_in2 [63:0] $end
    $var wire 64 T alu_out [63:0] $end
    $var wire  1 :! clk $end
    $var wire  3 D dec_funct3 [2:0] $end
    $var wire  7 E dec_funct7 [6:0] $end
    $var wire  7 C dec_opcode [6:0] $end
    $var wire  5 H dec_rd [4:0] $end
    $var wire  5 F dec_rs1 [4:0] $end
    $var wire  5 G dec_rs2 [4:0] $end
    $var wire 64 ' dmem_addr [63:0] $end
    $var wire 64 <! dmem_rdata [63:0] $end
    $var wire  3 , dmem_size [2:0] $end
    $var wire 64 ) dmem_wdata [63:0] $end
    $var wire  1 - dmem_we $end
    $var wire 139 ; ex_mem [138:0] $end
    $var wire  1 $ halt $end
    $var wire 291 1 id_ex [290:0] $end
    $var wire 96 . if_id [95:0] $end
    $var wire 64 % imem_addr [63:0] $end
    $var wire 32 + imem_instr [31:0] $end
    $var wire 64 N imm_gen [63:0] $end
    $var wire  1 I is_jal $end
    $var wire 64 J jal_imm [63:0] $end
    $var wire 64 L jump_target [63:0] $end
    $var wire 70 @ mem_wb [69:0] $end
    $var wire 64 % pc_reg [63:0] $end
    $var wire 64 X reg_file(0) [63:0] $end
    $var wire 64 Z reg_file(1) [63:0] $end
    $var wire 64 l reg_file(10) [63:0] $end
    $var wire 64 n reg_file(11) [63:0] $end
    $var wire 64 p reg_file(12) [63:0] $end
    $var wire 64 r reg_file(13) [63:0] $end
    $var wire 64 t reg_file(14) [63:0] $end
    $var wire 64 v reg_file(15) [63:0] $end
    $var wire 64 x reg_file(16) [63:0] $end
    $var wire 64 z reg_file(17) [63:0] $end
    $var wire 64 | reg_file(18) [63:0] $end
    $var wire 64 ~ reg_file(19) [63:0] $end
    $var wire 64 \ reg_file(2) [63:0] $end
    $var wire 64 "! reg_file(20) [63:0] $end
    $var wire 64 $! reg_file(21) [63:0] $end
    $var wire 64 &! reg_file(22) [63:0] $end
    $var wire 64 (! reg_file(23) [63:0] $end
    $var wire 64 *! reg_file(24) [63:0] $end
    $var wire 64 ,! reg_file(25) [63:0] $end
    $var wire 64 .! reg_file(26) [63:0] $end
    $var wire 64 0! reg_file(27) [63:0] $end
    $var wire 64 2! reg_file(28) [63:0] $end
    $var wire 64 4! reg_file(29) [63:0] $end
    $var wire 64 ^ reg_file(3) [63:0] $end
    $var wire 64 6! reg_file(30) [63:0] $end
    $var wire 64 8! reg_file(31) [63:0] $end
    $var wire 64 ` reg_file(4) [63:0] $end
    $var wire 64 b reg_file(5) [63:0] $end
    $var wire 64 d reg_file(6) [63:0] $end
    $var wire 64 f reg_file(7) [63:0] $end
    $var wire 64 h reg_file(8) [63:0] $end
    $var wire 64 j reg_file(9) [63:0] $end
    $var wire  1 ;! rst_n $end
    $scope module unnamedblk1 $end
     $var wire 64 V op2_val [63:0] $end
    $upscope $end
   $upscope $end
   $scope module imem $end
    $var wire 64 % addr [63:0] $end
    $var wire 32 + instr [31:0] $end
    $scope module unnamedblk1 $end
     $var wire 32 # i [31:0] $end
    $upscope $end
   $upscope $end
   $scope module unnamedblk1 $end
    $var wire 32 ?! i [31:0] $end
   $upscope $end
  $upscope $end
 $upscope $end
$enddefinitions $end


#0
b00000000000000000100000000000000 #
0$
b0000000000000000000000000000000000000000000000000000000000000000 %
b0000000000000000000000000000000000000000000000000000000000000000 '
b0000000000000000000000000000000000000000000000000000000000000000 )
b00000000000000000001000100010111 +
b000 ,
0-
b000000000000000000000000000000000000000000000000000000000000000000000000000000000000000000000000 .
b000000000000000000000000000000000000000000000000000000000000000000000000000000000000000000000000000000000000000000000000000000000000000000000000000000000000000000000000000000000000000000000000000000000000000000000000000000000000000000000000000000000000000000000000000000000000000000000000000 1
b0000000000000000000000000000000000000000000000000000000000000000000000000000000000000000000000000000000000000000000000000000000000000000000 ;
b0000000000000000000000000000000000000000000000000000000000000000000000 @
b0000000 C
b000 D
b0000000 E
b00000 F
b00000 G
b00000 H
0I
b0000000000000000000000000000000000000000000000000000000000000000 J
b0000000000000000000000000000000000000000000000000000000000000000 L
b0000000000000000000000000000000000000000000000000000000000000000 N
b0000000000000000000000000000000000000000000000000000000000000000 P
b0000000000000000000000000000000000000000000000000000000000000000 R
b0000000000000000000000000000000000000000000000000000000000000000 T
b0000000000000000000000000000000000000000000000000000000000000000 V
b0000000000000000000000000000000000000000000000000000000000000000 X
b0000000000000000000000000000000000000000000000000000000000000000 Z
b0000000000000000000000000000000000000000000000000000000000000000 \
b0000000000000000000000000000000000000000000000000000000000000000 ^
b0000000000000000000000000000000000000000000000000000000000000000 `
b0000000000000000000000000000000000000000000000000000000000000000 b
b0000000000000000000000000000000000000000000000000000000000000000 d
b0000000000000000000000000000000000000000000000000000000000000000 f
b0000000000000000000000000000000000000000000000000000000000000000 h
b0000000000000000000000000000000000000000000000000000000000000000 j
b0000000000000000000000000000000000000000000000000000000000000000 l
b0000000000000000000000000000000000000000000000000000000000000000 n
b0000000000000000000000000000000000000000000000000000000000000000 p
b0000000000000000000000000000000000000000000000000000000000000000 r
b0000000000000000000000000000000000000000000000000000000000000000 t
b0000000000000000000000000000000000000000000000000000000000000000 v
b0000000000000000000000000000000000000000000000000000000000000000 x
b0000000000000000000000000000000000000000000000000000000000000000 z
b0000000000000000000000000000000000000000000000000000000000000000 |
b0000000000000000000000000000000000000000000000000000000000000000 ~
b0000000000000000000000000000000000000000000000000000000000000000 "!
b0000000000000000000000000000000000000000000000000000000000000000 $!
b0000000000000000000000000000000000000000000000000000000000000000 &!
b0000000000000000000000000000000000000000000000000000000000000000 (!
b0000000000000000000000000000000000000000000000000000000000000000 *!
b0000000000000000000000000000000000000000000000000000000000000000 ,!
b0000000000000000000000000000000000000000000000000000000000000000 .!
b0000000000000000000000000000000000000000000000000000000000000000 0!
b0000000000000000000000000000000000000000000000000000000000000000 2!
b0000000000000000000000000000000000000000000000000000000000000000 4!
b0000000000000000000000000000000000000000000000000000000000000000 6!
b0000000000000000000000000000000000000000000000000000000000000000 8!
1:!
0;!
b0000000000000000000000000000000000000000000000000000000000000000 <!
b00000000000000000000000000000000 >!
b00000000000000000000000000000000 ?!
#1
#2
#3
#4
#5
0:!
#6
#7
#8
#9
#10
1:!
#11
#12
#13
#14
#15
0:!
#16
#17
#18
#19
#20
1:!
#21
#22
#23
#24
#25
0:!
#26
#27
#28
#29
#30
1:!
#31
#32
#33
#34
#35
0:!
#36
#37
#38
#39
#40
1:!
#41
#42
#43
#44
#45
0:!
#46
#47
#48
#49
#50
b0000000000000000000000000000000000000000000000000000000000000100 %
b00000000000000010000000100010011 +
b000000000000000000000000000000000000000000000000000000000000000000000000000000000001000100010111 .
b0010111 C
b001 D
b00010 H
b0000000000000000000000000000000000000000000000000001000000000000 J
b0000000000000000000000000000000000000000000000000001000000000000 L
b0000000000000000000000000000000000000000000000000001000000000000 N
1:!
1;!
#51
#52
#53
#54
#55
0:!
#56
#57
#58
#59
#60
b0000000000000000000000000000000000000000000000000000000000001000 %
b00000001000000000000000011101111 +
b000000000000000000000000000000000000000000000000000000000000010000000000000000010000000100010011 .
b000000000000000000000000000000000000000000000000000000000000000000000000000000000000000000000000000000000000000000000000000000000000000000000000000000000000000000000000000000000000000000000000000000000000000000000000000000000000000000000000000100000000000000000000000001000100000000010111100 1
b0010011 C
b000 D
b00010 F
b0000000000000000000000000000000000000000000000010000000000000000 J
b0000000000000000000000000000000000000000000000010000000000000100 L
b0000000000000000000000000000000000000000000000000000000000000000 N
b0000000000000000000000000000000000000000000000000001000000000000 T
b0000000000000000000000000000000000000000000000000001000000000000 V
1:!
#61
#62
#63
#64
#65
0:!
#66
#67
#68
#69
#70
b0000000000000000000000000000000000000000000000000000000000001100 %
b0000000000000000000000000000000000000000000000000001000000000000 '
b00000000000000000000000001101111 +
b001 ,
b000000000000000000000000000000000000000000000000000000000000100000000001000000000000000011101111 .
b000000000000000000000000000000000000000000000000000000000000010000000000000000000000000000000000000000000000000000000000000000000000000000000000000000000000000000000000000000000000000000000000000000000000000000000000000000000000000000000000000000000000000000010000000001000000000000010011100 1
b0000000000000000000000000000000000000000000000000001000000000000000000000000000000000000000000000000000000000000000000000000000000010100001 ;
b1101111 C
b00000 F
b10000 G
b00001 H
1I
b0000000000000000000000000000000000000000000000000000000000010000 J
b0000000000000000000000000000000000000000000000000000000000011000 L
b0000000000000000000000000000000000000000000000000000000000010000 N
b0000000000000000000000000000000000000000000000000001000000000000 P
b0000000000000000000000000000000000000000000000000000000000000000 V
1:!
#71
#72
#73
#74
#75
0:!
#76
#77
#78
#79
#80
b0000000000000000000000000000000000000000000000000000000000011000 %
b00000010100000000000011110010011 +
b000 ,
b000000000000000000000000000000000000000000000000000000000000000000000000000000000000000000000000 .
b000000000000000000000000000000000000000000000000000000000000000000000000000000000000000000000000000000000000000000000000000000000000000000000000000000000000000000000000000000000000000000000000000000000000000000000000000000000000000000000000000000000000000000000000000000000000000000000000000 1
b0000000000000000000000000000000000000000000000000001000000000000000000000000000000000000000000000000000000000000000000000000000000010100000 ;
b0000000000000000000000000000000000000000000000000001000000000000000101 @
b0000000 C
b00000 G
b00000 H
0I
b0000000000000000000000000000000000000000000000000000000000000000 J
b0000000000000000000000000000000000000000000000000000000000000000 L
b0000000000000000000000000000000000000000000000000000000000000000 N
b0000000000000000000000000000000000000000000000000000000000000000 P
b0000000000000000000000000000000000000000000000000000000000000000 T
1:!
#81
#82
#83
#84
#85
0:!
#86
#87
#88
#89
#90
b0000000000000000000000000000000000000000000000000000000000011100 %
b0000000000000000000000000000000000000000000000000000000000000000 '
b01010000111100000011000000100011 +
b000000000000000000000000000000000000000000000000000000000001100000000010100000000000011110010011 .
b0000000000000000000000000000000000000000000000000000000000000000000000000000000000000000000000000000000000000000000000000000000000000000000 ;
b0010011 C
b0000001 E
b01000 G
b01111 H
b0000000000000000000000000000000000000000000000000000000000101000 J
b0000000000000000000000000000000000000000000000000000000001000000 L
b0000000000000000000000000000000000000000000000000000000000101000 N
b0000000000000000000000000000000000000000000000000001000000000000 \
1:!
#91
#92
#93
#94
#95
0:!
#96
#97
#98
#99
#100
b0000000000000000000000000000000000000000000000000000000000100000 %
b00000000000000000001011100110111 +
b000000000000000000000000000000000000000000000000000000000001110001010000111100000011000000100011 .
b000000000000000000000000000000000000000000000000000000000001100000000000000000000000000000000000000000000000000000000000000000000000000000000000000000000000000000000000000000000000000000000000000000000000000000000000000000000000000000000000000000000010100000000010000111100000000010010011100 1
b0000000000000000000000000000000000000000000000000000000000000000000000 @
b0100011 C
b011 D
b0101000 E
b01111 G
b00000 H
b0000000000000000000000000000000000000000000000000011110100001110 J
b0000000000000000000000000000000000000000000000000011110100101010 L
b0000000000000000000000000000000000000000000000000000010100000000 N
b0000000000000000000000000000000000000000000000000000000000101000 T
b0000000000000000000000000000000000000000000000000000000000101000 V
1:!
#101
#102
#103
#104
#105
0:!
#106
#107
#108
#109
#110
b0000000000000000000000000000000000000000000000000000000000100100 %
b0000000000000000000000000000000000000000000000000000000000101000 '
b00000000100000000000011110010011 +
b000000000000000000000000000000000000000000000000000000000010000000000000000000000001011100110111 .
b000000000000000000000000000000000000000000000000000000000001110000000000000000000000000000000000000000000000000000000000000000000000000000000000000000000000000000000000000000000000000000000000000000000000000000000000000000000000000000000000000001010000000000000011110000001101010000100011001 1
b0000000000000000000000000000000000000000000000000000000000101000000000000000000000000000000000000000000000000000000000000000000001111100000 ;
b0110111 C
b001 D
b0000000 E
b00000 G
b01110 H
b0000000000000000000000000000000000000000000000000001000000000000 J
b0000000000000000000000000000000000000000000000000001000000100000 L
b0000000000000000000000000000000000000000000000000001000000000000 N
b0000000000000000000000000000000000000000000000000000000000101000 R
b0000000000000000000000000000000000000000000000000000010100000000 T
b0000000000000000000000000000000000000000000000000000010100000000 V
1:!
#111
#112
#113
#114
#115
0:!
#116
#117
#118
#119
#120
b0000000000000000000000000000000000000000000000000000000000101000 %
b0000000000000000000000000000000000000000000000000000010100000000 '
b0000000000000000000000000000000000000000000000000000000000101000 )
b00100000111001111010011010110011 +
b011 ,
1-
b000000000000000000000000000000000000000000000000000000000010010000000000100000000000011110010011 .
b000000000000000000000000000000000000000000000000000000000010000000000000000000000000000000000000000000000000000000000000000000000000000000000000000000000000000000000000000000000000000000000000000000000000000000000000000000000000000000000000000100000000000000000000000111000100000000110111100 1
b0000000000000000000000000000000000000000000000000000010100000000000000000000000000000000000000000000000000000000000000000010100000000001011 ;
b0000000000000000000000000000000000000000000000000000000000101000011111 @
b0010011 C
b000 D
b01000 G
b01111 H
b0000000000000000000000000000000000000000000000000000000000001000 J
b0000000000000000000000000000000000000000000000000000000000101100 L
b0000000000000000000000000000000000000000000000000000000000001000 N
b0000000000000000000000000000000000000000000000000000000000000000 R
b0000000000000000000000000000000000000000000000000001000000000000 T
b0000000000000000000000000000000000000000000000000001000000000000 V
1:!
#121
#122
#123
#124
#125
0:!
#126
#127
#128
#129
#130
b0000000000000000000000000000000000000000000000000000000000101100 %
b0000000000000000000000000000000000000000000000000001000000000000 '
b0000000000000000000000000000000000000000000000000000000000000000 )
b00001000111001111000011110111011 +
b001 ,
0-
b000000000000000000000000000000000000000000000000000000000010100000100000111001111010011010110011 .
b000000000000000000000000000000000000000000000000000000000010010000000000000000000000000000000000000000000000000000000000000000000000000000000000000000000000000000000000000000000000000000000000000000000000000000000000000000000000000000000000000000000000100000000010000111100000000000010011100 1
b0000000000000000000000000000000000000000000000000001000000000000000000000000000000000000000000000000000000000000000000000000000001110100001 ;
b0000000000000000000000000000000000000000000000000000010100000000000000 @
b0110011 C
b010 D
b0010000 E
b01111 F
b01110 G
b01101 H
b0000000000000000000000000000000000000000000001111010001000001110 J
b0000000000000000000000000000000000000000000001111010001000110110 L
b0000000000000000000000000000000000000000000000000000000000000000 N
b0000000000000000000000000000000000000000000000000000000000001000 T
b0000000000000000000000000000000000000000000000000000000000001000 V
b0000000000000000000000000000000000000000000000000000000000101000 v
1:!
#131
#132
#133
#134
#135
0:!
#136
#137
#138
#139
#140
b0000000000000000000000000000000000000000000000000000000000110000 %
b0000000000000000000000000000000000000000000000000000000000001000 '
b00000000000000000000000001101111 +
b000 ,
b000000000000000000000000000000000000000000000000000000000010110000001000111001111000011110111011 .
b000000000000000000000000000000000000000000000000000000000010100000000000000000000000000000000000000000000000000000000000001010000000000000000000000000000000000000000000000000000000000000000000000000000000000000000000000000000000000000000000000000000000000001111011100110101000100000110011100 1
b0000000000000000000000000000000000000000000000000000000000001000000000000000000000000000000000000000000000000000000000000000000001111100000 ;
b0000000000000000000000000000000000000000000000000001000000000000011101 @
b0111011 C
b000 D
b0000100 E
b01111 H
b0000000000000000000000000000000000000000000001111000000010001110 J
b0000000000000000000000000000000000000000000001111000000010111010 L
b0000000000000000000000000000000000000000000000000000000000001000 P
b0000000000000000000000000000000000000000000000000001000000000000 R
b0000000000000000000000000000000000000000000000000001000000010000 T
b0000000000000000000000000000000000000000000000000001000000000000 V
1:!
#141
#142
#143
#144
#145
0:!
#146
#147
#148
#149
#150
1$
b0000000000000000000000000000000000000000000000000000000000110100 %
b0000000000000000000000000000000000000000000000000001000000010000 '
b0000000000000000000000000000000000000000000000000001000000000000 )
b010 ,
b000000000000000000000000000000000000000000000000000000000011000000000000000000000000000001101111 .
b000000000000000000000000000000000000000000000000000000000010110000000000000000000000000000000000000000000000000000000000001010000000000000000000000000000000000000000000000000000000000000000000000000000000000000000000000000000000000000000000000000000000000001111011100111100000001000111011100 1
b0000000000000000000000000000000000000000000000000001000000010000000000000000000000000000000000000000000000000000000100000000000001101100010 ;
b0000000000000000000000000000000000000000000000000000000000001000011111 @
b1101111 C
b0000000 E
b00000 F
b00000 G
b00000 H
1I
b0000000000000000000000000000000000000000000000000000000000000000 J
b0000000000000000000000000000000000000000000000000000000000110000 L
b0000000000000000000000000000000000000000000000000000000000000000 R
b0000000000000000000000000000000000000000000000000000000000001000 T
b0000000000000000000000000000000000000000000000000000000000000000 V
b0000000000000000000000000000000000000000000000000001000000000000 t
1:!
#151
#152
#153
#154
#155
0:!
#156
#157
#158
#159
#160
0$
b0000000000000000000000000000000000000000000000000000000000110000 %
b0000000000000000000000000000000000000000000000000000000000001000 '
b0000000000000000000000000000000000000000000000000000000000000000 )
b000 ,
b000000000000000000000000000000000000000000000000000000000000000000000000000000000000000000000000 .
b000000000000000000000000000000000000000000000000000000000000000000000000000000000000000000000000000000000000000000000000000000000000000000000000000000000000000000000000000000000000000000000000000000000000000000000000000000000000000000000000000000000000000000000000000000000000000000000000000 1
b0000000000000000000000000000000000000000000000000000000000001000000000000000000000000000000000000000000000000000000000000000000001111100000 ;
b0000000000000000000000000000000000000000000000000001000000010000011011 @
b0000000 C
0I
b0000000000000000000000000000000000000000000000000000000000000000 L
b0000000000000000000000000000000000000000000000000000000000000000 P
b0000000000000000000000000000000000000000000000000000000000000000 T
b0000000000000000000000000000000000000000000000000000000000001000 v
1:!
b00000000000000000000000000000001 >!
#161
#162
#163
#164
#165
0:!
#166
#167
#168
#169
#170
1$
b0000000000000000000000000000000000000000000000000000000000110100 %
b0000000000000000000000000000000000000000000000000000000000000000 '
b000000000000000000000000000000000000000000000000000000000011000000000000000000000000000001101111 .
b0000000000000000000000000000000000000000000000000000000000000000000000000000000000000000000000000000000000000000000000000000000000000000000 ;
b0000000000000000000000000000000000000000000000000000000000001000011111 @
b1101111 C
1I
b0000000000000000000000000000000000000000000000000000000000110000 L
b0000000000000000000000000000000000000000000000000001000000010000 r
1:!
#171
#172
#173
#174
#175
0:!
#176
#177
#178
#179
#180
0$
b0000000000000000000000000000000000000000000000000000000000110000 %
b000000000000000000000000000000000000000000000000000000000000000000000000000000000000000000000000 .
b0000000000000000000000000000000000000000000000000000000000000000000000 @
b0000000 C
0I
b0000000000000000000000000000000000000000000000000000000000000000 L
1:!
b00000000000000000000000000000010 >!
#181
#182
#183
#184
#185
0:!
#186
#187
#188
#189
#190
1$
b0000000000000000000000000000000000000000000000000000000000110100 %
b000000000000000000000000000000000000000000000000000000000011000000000000000000000000000001101111 .
b1101111 C
1I
b0000000000000000000000000000000000000000000000000000000000110000 L
1:!
#191
#192
#193
#194
#195
0:!
#196
#197
#198
#199
#200
0$
b0000000000000000000000000000000000000000000000000000000000110000 %
b000000000000000000000000000000000000000000000000000000000000000000000000000000000000000000000000 .
b0000000 C
0I
b0000000000000000000000000000000000000000000000000000000000000000 L
1:!
b00000000000000000000000000000011 >!
#201
#202
#203
#204
#205
0:!
#206
#207
#208
#209
#210
1$
b0000000000000000000000000000000000000000000000000000000000110100 %
b000000000000000000000000000000000000000000000000000000000011000000000000000000000000000001101111 .
b1101111 C
1I
b0000000000000000000000000000000000000000000000000000000000110000 L
1:!
#211
#212
#213
#214
#215
0:!
#216
#217
#218
#219
#220
0$
b0000000000000000000000000000000000000000000000000000000000110000 %
b000000000000000000000000000000000000000000000000000000000000000000000000000000000000000000000000 .
b0000000 C
0I
b0000000000000000000000000000000000000000000000000000000000000000 L
1:!
b00000000000000000000000000000100 >!
#221
#222
#223
#224
#225
0:!
#226
#227
#228
#229
#230
1$
b0000000000000000000000000000000000000000000000000000000000110100 %
b000000000000000000000000000000000000000000000000000000000011000000000000000000000000000001101111 .
b1101111 C
1I
b0000000000000000000000000000000000000000000000000000000000110000 L
1:!
#231
#232
#233
#234
#235
0:!
#236
#237
#238
#239
#240
0$
b0000000000000000000000000000000000000000000000000000000000110000 %
b000000000000000000000000000000000000000000000000000000000000000000000000000000000000000000000000 .
b0000000 C
0I
b0000000000000000000000000000000000000000000000000000000000000000 L
1:!
b00000000000000000000000000000101 >!
#241
#242
#243
#244
#245
0:!
#246
#247
#248
#249
#250
1$
b0000000000000000000000000000000000000000000000000000000000110100 %
b000000000000000000000000000000000000000000000000000000000011000000000000000000000000000001101111 .
b1101111 C
1I
b0000000000000000000000000000000000000000000000000000000000110000 L
1:!
#251
#252
#253
#254
#255
0:!
#256
#257
#258
#259
#260
0$
b0000000000000000000000000000000000000000000000000000000000110000 %
b000000000000000000000000000000000000000000000000000000000000000000000000000000000000000000000000 .
b0000000 C
0I
b0000000000000000000000000000000000000000000000000000000000000000 L
1:!
b00000000000000000000000000000110 >!
#261
#262
#263
#264
#265
0:!
#266
#267
#268
#269
#270
1$
b0000000000000000000000000000000000000000000000000000000000110100 %
b000000000000000000000000000000000000000000000000000000000011000000000000000000000000000001101111 .
b1101111 C
1I
b0000000000000000000000000000000000000000000000000000000000110000 L
1:!
#271
#272
#273
#274
#275
0:!
#276
#277
#278
#279
#280
0$
b0000000000000000000000000000000000000000000000000000000000110000 %
b000000000000000000000000000000000000000000000000000000000000000000000000000000000000000000000000 .
b0000000 C
0I
b0000000000000000000000000000000000000000000000000000000000000000 L
1:!
b00000000000000000000000000000111 >!
#281
#282
#283
#284
#285
0:!
#286
#287
#288
#289
#290
1$
b0000000000000000000000000000000000000000000000000000000000110100 %
b000000000000000000000000000000000000000000000000000000000011000000000000000000000000000001101111 .
b1101111 C
1I
b0000000000000000000000000000000000000000000000000000000000110000 L
1:!
#291
#292
#293
#294
#295
0:!
#296
#297
#298
#299
#300
0$
b0000000000000000000000000000000000000000000000000000000000110000 %
b000000000000000000000000000000000000000000000000000000000000000000000000000000000000000000000000 .
b0000000 C
0I
b0000000000000000000000000000000000000000000000000000000000000000 L
1:!
b00000000000000000000000000001000 >!
#301
#302
#303
#304
#305
0:!
#306
#307
#308
#309
#310
1$
b0000000000000000000000000000000000000000000000000000000000110100 %
b000000000000000000000000000000000000000000000000000000000011000000000000000000000000000001101111 .
b1101111 C
1I
b0000000000000000000000000000000000000000000000000000000000110000 L
1:!
#311
#312
#313
#314
#315
0:!
#316
#317
#318
#319
#320
0$
b0000000000000000000000000000000000000000000000000000000000110000 %
b000000000000000000000000000000000000000000000000000000000000000000000000000000000000000000000000 .
b0000000 C
0I
b0000000000000000000000000000000000000000000000000000000000000000 L
1:!
b00000000000000000000000000001001 >!
#321
#322
#323
#324
#325
0:!
#326
#327
#328
#329
#330
1$
b0000000000000000000000000000000000000000000000000000000000110100 %
b000000000000000000000000000000000000000000000000000000000011000000000000000000000000000001101111 .
b1101111 C
1I
b0000000000000000000000000000000000000000000000000000000000110000 L
1:!
#331
#332
#333
#334
#335
0:!
#336
#337
#338
#339
#340
0$
b0000000000000000000000000000000000000000000000000000000000110000 %
b000000000000000000000000000000000000000000000000000000000000000000000000000000000000000000000000 .
b0000000 C
0I
b0000000000000000000000000000000000000000000000000000000000000000 L
1:!
b00000000000000000000000000001010 >!
#341
#342
#343
#344
#345
0:!
#346
#347
#348
#349
#350
1$
b0000000000000000000000000000000000000000000000000000000000110100 %
b000000000000000000000000000000000000000000000000000000000011000000000000000000000000000001101111 .
b1101111 C
1I
b0000000000000000000000000000000000000000000000000000000000110000 L
1:!
#351
#352
#353
#354
#355
0:!
#356
#357
#358
#359
#360
0$
b0000000000000000000000000000000000000000000000000000000000110000 %
b000000000000000000000000000000000000000000000000000000000000000000000000000000000000000000000000 .
b0000000 C
0I
b0000000000000000000000000000000000000000000000000000000000000000 L
1:!
b00000000000000000000000000100000 ?!
