processor.vcd
$version Generated by VerilatedVcd $end
$date Mon Feb  9 01:44:14 2026
 $end
$timescale   1ps $end

 $scope module TOP $end
  $var wire  1 ;! clk $end
  $var wire  1 <! rst_n $end
  $scope module tb_processor $end
   $var wire  1 ;! clk $end
   $var wire 64 ( dmem_addr [63:0] $end
   $var wire 64 =! dmem_rdata [63:0] $end
   $var wire  3 - dmem_size [2:0] $end
   $var wire 64 * dmem_wdata [63:0] $end
   $var wire  1 . dmem_we $end
   $var wire  1 % halt $end
   $var wire 32 ?! halt_counter [31:0] $end
   $var wire 64 & imem_addr [63:0] $end
   $var wire 32 , instr [31:0] $end
   $var wire  1 <! rst_n $end
   $scope module dmem $end
    $var wire 64 ( addr [63:0] $end
    $var wire  1 ;! clk $end
    $var wire 64 =! rdata [63:0] $end
    $var wire 64 * wdata [63:0] $end
    $var wire  1 . we $end
    $scope module unnamedblk1 $end
     $var wire 32 $ i [31:0] $end
    $upscope $end
   $upscope $end
   $scope module dut $end
    $var wire 64 3! alu_in1 [63:0] $end
    $var wire 64 5! alu_in2 [63:0] $end
    $var wire 64 7! alu_out [63:0] $end
    $var wire  1 ;! clk $end
    $var wire  3 '! dec_funct3 [2:0] $end
    $var wire  7 (! dec_funct7 [6:0] $end
    $var wire  7 &! dec_opcode [6:0] $end
    $var wire  5 +! dec_rd [4:0] $end
    $var wire  5 )! dec_rs1 [4:0] $end
    $var wire  5 *! dec_rs2 [4:0] $end
    $var wire 64 ( dmem_addr [63:0] $end
    $var wire 64 =! dmem_rdata [63:0] $end
    $var wire  3 - dmem_size [2:0] $end
    $var wire 64 * dmem_wdata [63:0] $end
    $var wire  1 . dmem_we $end
    $var wire 139 | ex_mem [138:0] $end
    $var wire  1 % halt $end
    $var wire 291 r id_ex [290:0] $end
    $var wire 96 o if_id [95:0] $end
    $var wire 64 & imem_addr [63:0] $end
    $var wire 32 , imem_instr [31:0] $end
    $var wire 64 1! imm_gen [63:0] $end
    $var wire  1 ,! is_jal $end
    $var wire 64 -! jal_imm [63:0] $end
    $var wire 64 /! jump_target [63:0] $end
    $var wire 70 #! mem_wb [69:0] $end
    $var wire 64 & pc_reg [63:0] $end
    $var wire 64 / reg_file(0) [63:0] $end
    $var wire 64 1 reg_file(1) [63:0] $end
    $var wire 64 C reg_file(10) [63:0] $end
    $var wire 64 E reg_file(11) [63:0] $end
    $var wire 64 G reg_file(12) [63:0] $end
    $var wire 64 I reg_file(13) [63:0] $end
    $var wire 64 K reg_file(14) [63:0] $end
    $var wire 64 M reg_file(15) [63:0] $end
    $var wire 64 O reg_file(16) [63:0] $end
    $var wire 64 Q reg_file(17) [63:0] $end
    $var wire 64 S reg_file(18) [63:0] $end
    $var wire 64 U reg_file(19) [63:0] $end
    $var wire 64 3 reg_file(2) [63:0] $end
    $var wire 64 W reg_file(20) [63:0] $end
    $var wire 64 Y reg_file(21) [63:0] $end
    $var wire 64 [ reg_file(22) [63:0] $end
    $var wire 64 ] reg_file(23) [63:0] $end
    $var wire 64 _ reg_file(24) [63:0] $end
    $var wire 64 a reg_file(25) [63:0] $end
    $var wire 64 c reg_file(26) [63:0] $end
    $var wire 64 e reg_file(27) [63:0] $end
    $var wire 64 g reg_file(28) [63:0] $end
    $var wire 64 i reg_file(29) [63:0] $end
    $var wire 64 5 reg_file(3) [63:0] $end
    $var wire 64 k reg_file(30) [63:0] $end
    $var wire 64 m reg_file(31) [63:0] $end
    $var wire 64 7 reg_file(4) [63:0] $end
    $var wire 64 9 reg_file(5) [63:0] $end
    $var wire 64 ; reg_file(6) [63:0] $end
    $var wire 64 = reg_file(7) [63:0] $end
    $var wire 64 ? reg_file(8) [63:0] $end
    $var wire 64 A reg_file(9) [63:0] $end
    $var wire  1 <! rst_n $end
    $scope module unnamedblk1 $end
     $var wire 64 9! op2_val [63:0] $end
    $upscope $end
    $scope module unnamedblk2 $end
     $var wire 32 A! i [31:0] $end
    $upscope $end
   $upscope $end
   $scope module imem $end
    $var wire 64 & addr [63:0] $end
    $var wire 32 , instr [31:0] $end
    $scope module unnamedblk1 $end
     $var wire 32 # i [31:0] $end
    $upscope $end
   $upscope $end
   $scope module unnamedblk1 $end
    $var wire 32 @! i [31:0] $end
   $upscope $end
  $upscope $end
 $upscope $end
$enddefinitions $end


#0
b00000000000000000100000000000000 #
b00000000000000000000010000000000 $
0%
b0000000000000000000000000000000000000000000000000000000000000000 &
b0000000000000000000000000000000000000000000000000000000000000000 (
b0000000000000000000000000000000000000000000000000000000000000000 *
b00000000000000000001000100010111 ,
b000 -
0.
b0000000000000000000000000000000000000000000000000000000000000000 /
b0000000000000000000000000000000000000000000000000000000000000000 1
b0000000000000000000000000000000000000000000000000000000000000000 3
b0000000000000000000000000000000000000000000000000000000000000000 5
b0000000000000000000000000000000000000000000000000000000000000000 7
b0000000000000000000000000000000000000000000000000000000000000000 9
b0000000000000000000000000000000000000000000000000000000000000000 ;
b0000000000000000000000000000000000000000000000000000000000000000 =
b0000000000000000000000000000000000000000000000000000000000000000 ?
b0000000000000000000000000000000000000000000000000000000000000000 A
b0000000000000000000000000000000000000000000000000000000000000000 C
b0000000000000000000000000000000000000000000000000000000000000000 E
b0000000000000000000000000000000000000000000000000000000000000000 G
b0000000000000000000000000000000000000000000000000000000000000000 I
b0000000000000000000000000000000000000000000000000000000000000000 K
b0000000000000000000000000000000000000000000000000000000000000000 M
b0000000000000000000000000000000000000000000000000000000000000000 O
b0000000000000000000000000000000000000000000000000000000000000000 Q
b0000000000000000000000000000000000000000000000000000000000000000 S
b0000000000000000000000000000000000000000000000000000000000000000 U
b0000000000000000000000000000000000000000000000000000000000000000 W
b0000000000000000000000000000000000000000000000000000000000000000 Y
b0000000000000000000000000000000000000000000000000000000000000000 [
b0000000000000000000000000000000000000000000000000000000000000000 ]
b0000000000000000000000000000000000000000000000000000000000000000 _
b0000000000000000000000000000000000000000000000000000000000000000 a
b0000000000000000000000000000000000000000000000000000000000000000 c
b0000000000000000000000000000000000000000000000000000000000000000 e
b0000000000000000000000000000000000000000000000000000000000000000 g
b0000000000000000000000000000000000000000000000000000000000000000 i
b0000000000000000000000000000000000000000000000000000000000000000 k
b0000000000000000000000000000000000000000000000000000000000000000 m
b000000000000000000000000000000000000000000000000000000000000000000000000000000000000000000000000 o
b000000000000000000000000000000000000000000000000000000000000000000000000000000000000000000000000000000000000000000000000000000000000000000000000000000000000000000000000000000000000000000000000000000000000000000000000000000000000000000000000000000000000000000000000000000000000000000000000000 r
b0000000000000000000000000000000000000000000000000000000000000000000000000000000000000000000000000000000000000000000000000000000000000000000 |
b0000000000000000000000000000000000000000000000000000000000000000000000 #!
b0000000 &!
b000 '!
b0000000 (!
b00000 )!
b00000 *!
b00000 +!
0,!
b0000000000000000000000000000000000000000000000000000000000000000 -!
b0000000000000000000000000000000000000000000000000000000000000000 /!
b0000000000000000000000000000000000000000000000000000000000000000 1!
b0000000000000000000000000000000000000000000000000000000000000000 3!
b0000000000000000000000000000000000000000000000000000000000000000 5!
b0000000000000000000000000000000000000000000000000000000000000000 7!
b0000000000000000000000000000000000000000000000000000000000000000 9!
1;!
0<!
b0000000000000000000000000000000000000000000000000000000000000000 =!
b00000000000000000000000000000000 ?!
b00000000000000000000000000000000 @!
b00000000000000000000000000000000 A!
#1
#2
#3
#4
#5
0;!
#6
#7
#8
#9
#10
1;!
b00000000000000000000000000100000 A!
#11
#12
#13
#14
#15
0;!
#16
#17
#18
#19
#20
1;!
#21
#22
#23
#24
#25
0;!
#26
#27
#28
#29
#30
1;!
#31
#32
#33
#34
#35
0;!
#36
#37
#38
#39
#40
1;!
#41
#42
#43
#44
#45
0;!
#46
#47
#48
#49
#50
b0000000000000000000000000000000000000000000000000000000000000100 &
b00000000000000010000000100010011 ,
b000000000000000000000000000000000000000000000000000000000000000000000000000000000001000100010111 o
b0010111 &!
b001 '!
b00010 +!
b0000000000000000000000000000000000000000000000000001000000000000 -!
b0000000000000000000000000000000000000000000000000001000000000000 /!
b0000000000000000000000000000000000000000000000000001000000000000 1!
1;!
1<!
#51
#52
#53
#54
#55
0;!
#56
#57
#58
#59
#60
b0000000000000000000000000000000000000000000000000000000000001000 &
b00000001000000000000000011101111 ,
b000000000000000000000000000000000000000000000000000000000000010000000000000000010000000100010011 o
b000000000000000000000000000000000000000000000000000000000000000000000000000000000000000000000000000000000000000000000000000000000000000000000000000000000000000000000000000000000000000000000000000000000000000000000000000000000000000000000000000100000000000000000000000001000100000000010111100 r
b0010011 &!
b000 '!
b00010 )!
b0000000000000000000000000000000000000000000000010000000000000000 -!
b0000000000000000000000000000000000000000000000010000000000000100 /!
b0000000000000000000000000000000000000000000000000000000000000000 1!
b0000000000000000000000000000000000000000000000000001000000000000 7!
b0000000000000000000000000000000000000000000000000001000000000000 9!
1;!
#61
#62
#63
#64
#65
0;!
#66
#67
#68
#69
#70
b0000000000000000000000000000000000000000000000000000000000001100 &
b0000000000000000000000000000000000000000000000000001000000000000 (
b00000000000000000000000001101111 ,
b001 -
b000000000000000000000000000000000000000000000000000000000000100000000001000000000000000011101111 o
b000000000000000000000000000000000000000000000000000000000000010000000000000000000000000000000000000000000000000000000000000000000000000000000000000000000000000000000000000000000000000000000000000000000000000000000000000000000000000000000000000000000000000000010000000001000000000000010011100 r
b0000000000000000000000000000000000000000000000000001000000000000000000000000000000000000000000000000000000000000000000000000000000010100001 |
b1101111 &!
b00000 )!
b10000 *!
b00001 +!
1,!
b0000000000000000000000000000000000000000000000000000000000010000 -!
b0000000000000000000000000000000000000000000000000000000000011000 /!
b0000000000000000000000000000000000000000000000000000000000010000 1!
b0000000000000000000000000000000000000000000000000001000000000000 3!
b0000000000000000000000000000000000000000000000000000000000000000 9!
1;!
#71
#72
#73
#74
#75
0;!
#76
#77
#78
#79
#80
b0000000000000000000000000000000000000000000000000000000000011000 &
b11111110000000010000000100010011 ,
b000 -
b000000000000000000000000000000000000000000000000000000000000000000000000000000000000000000000000 o
b000000000000000000000000000000000000000000000000000000000000000000000000000000000000000000000000000000000000000000000000000000000000000000000000000000000000000000000000000000000000000000000000000000000000000000000000000000000000000000000000000000000000000000000000000000000000000000000000000 r
b0000000000000000000000000000000000000000000000000001000000000000000000000000000000000000000000000000000000000000000000000000000000010100000 |
b0000000000000000000000000000000000000000000000000001000000000000000101 #!
b0000000 &!
b00000 *!
b00000 +!
0,!
b0000000000000000000000000000000000000000000000000000000000000000 -!
b0000000000000000000000000000000000000000000000000000000000000000 /!
b0000000000000000000000000000000000000000000000000000000000000000 1!
b0000000000000000000000000000000000000000000000000000000000000000 3!
b0000000000000000000000000000000000000000000000000000000000000000 7!
1;!
#81
#82
#83
#84
#85
0;!
#86
#87
#88
#89
#90
b0000000000000000000000000000000000000000000000000000000000011100 &
b0000000000000000000000000000000000000000000000000000000000000000 (
b00000001001000010011110000100011 ,
b0000000000000000000000000000000000000000000000000001000000000000 3
b000000000000000000000000000000000000000000000000000000000001100011111110000000010000000100010011 o
b0000000000000000000000000000000000000000000000000000000000000000000000000000000000000000000000000000000000000000000000000000000000000000000 |
b0010011 &!
b1111111 (!
b00010 )!
b00010 +!
b1111111111111111111111111111111111111111111100010000011111100000 -!
b1111111111111111111111111111111111111111111100010000011111111000 /!
b1111111111111111111111111111111111111111111111111111111111100000 1!
1;!
#91
#92
#93
#94
#95
0;!
#96
#97
#98
#99
#100
b0000000000000000000000000000000000000000000000000000000000100000 &
b00000001001100010011100000100011 ,
b000000000000000000000000000000000000000000000000000000000001110000000001001000010011110000100011 o
b000000000000000000000000000000000000000000000000000000000001100000000000000000000000000000000000000000000000000000010000000000000000000000000000000000000000000000000000000000000000000000000000111111111111111111111111111111111111111111111111111111111110000000010000000001000011111110010011100 r
b0000000000000000000000000000000000000000000000000000000000000000000000 #!
b0100011 &!
b011 '!
b0000000 (!
b10010 *!
b11000 +!
b0000000000000000000000000000000000000000000000010011000000010010 -!
b0000000000000000000000000000000000000000000000010011000000101110 /!
b0000000000000000000000000000000000000000000000000000000000011000 1!
b0000000000000000000000000000000000000000000000000001000000000000 3!
b0000000000000000000000000000000000000000000000000000111111100000 7!
b1111111111111111111111111111111111111111111111111111111111100000 9!
1;!
#101
#102
#103
#104
#105
0;!
#106
#107
#108
#109
#110
b0000000000000000000000000000000000000000000000000000000000100100 &
b0000000000000000000000000000000000000000000000000000111111100000 (
b00000001010000010011010000100011 ,
b000000000000000000000000000000000000000000000000000000000010000000000001001100010011100000100011 o
b000000000000000000000000000000000000000000000000000000000001110000000000000000000000000000000000000000000000000000010000000000000000000000000000000000000000000000000000000000000000000000000000000000000000000000000000000000000000000000000000000000000001100000010100101100001100000000100011001 r
b0000000000000000000000000000000000000000000000000000111111100000000000000000000000000000000000000000000000000000000000000000000000010100000 |
b10011 *!
b10000 +!
b0000000000000000000000000000000000000000000000010011100000010010 -!
b0000000000000000000000000000000000000000000000010011100000110010 /!
b0000000000000000000000000000000000000000000000000000000000010000 1!
b0000000000000000000000000000000000000000000000000000111111100000 3!
b0000000000000000000000000000000000000000000000000000111111111000 7!
b0000000000000000000000000000000000000000000000000000000000011000 9!
1;!
#111
#112
#113
#114
#115
0;!
#116
#117
#118
#119
#120
b0000000000000000000000000000000000000000000000000000000000101000 &
b0000000000000000000000000000000000000000000000000000111111111000 (
b00000000111100000000010100010011 ,
b011 -
1.
b000000000000000000000000000000000000000000000000000000000010010000000001010000010011010000100011 o
b000000000000000000000000000000000000000000000000000000000010000000000000000000000000000000000000000000000000000000010000000000000000000000000000000000000000000000000000000000000000000000000000000000000000000000000000000000000000000000000000000000000001000000010100111000001100000000100011001 r
b0000000000000000000000000000000000000000000000000000111111111000000000000000000000000000000000000000000000000000000000000000000011000001011 |
b0000000000000000000000000000000000000000000000000000111111100000000101 #!
b10100 *!
b01000 +!
b0000000000000000000000000000000000000000000000010011000000010100 -!
b0000000000000000000000000000000000000000000000010011000000111000 /!
b0000000000000000000000000000000000000000000000000000000000001000 1!
b0000000000000000000000000000000000000000000000000000111111110000 7!
b0000000000000000000000000000000000000000000000000000000000010000 9!
1;!
#121
#122
#123
#124
#125
0;!
#126
#127
#128
#129
#130
b0000000000000000000000000000000000000000000000000000000000101100 &
b0000000000000000000000000000000000000000000000000000111111110000 (
b00000001100100000000010110010011 ,
b0000000000000000000000000000000000000000000000000000111111100000 3
b000000000000000000000000000000000000000000000000000000000010100000000000111100000000010100010011 o
b000000000000000000000000000000000000000000000000000000000010010000000000000000000000000000000000000000000000000000010000000000000000000000000000000000000000000000000000000000000000000000000000000000000000000000000000000000000000000000000000000000000000100000010101000100001100000000100011001 r
b0000000000000000000000000000000000000000000000000000111111110000000000000000000000000000000000000000000000000000000000000000000010000001011 |
b0000000000000000000000000000000000000000000000000000111111111000110000 #!
b0010011 &!
b000 '!
b00000 )!
b01111 *!
b01010 +!
b0000000000000000000000000000000000000000000000000000100000001110 -!
b0000000000000000000000000000000000000000000000000000100000110110 /!
b0000000000000000000000000000000000000000000000000000000000001111 1!
b0000000000000000000000000000000000000000000000000001000000000000 3!
b0000000000000000000000000000000000000000000000000001000000001000 7!
b0000000000000000000000000000000000000000000000000000000000001000 9!
1;!
#131
#132
#133
#134
#135
0;!
#136
#137
#138
#139
#140
b0000000000000000000000000000000000000000000000000000000000110000 &
b0000000000000000000000000000000000000000000000000001000000001000 (
b00000000101101010000010100110011 ,
b000000000000000000000000000000000000000000000000000000000010110000000001100100000000010110010011 o
b000000000000000000000000000000000000000000000000000000000010100000000000000000000000000000000000000000000000000000000000000000000000000000000000000000000000000000000000000000000000000000000000000000000000000000000000000000000000000000000000000000000000111100000011110101000000000000010011100 r
b0000000000000000000000000000000000000000000000000001000000001000000000000000000000000000000000000000000000000000000000000000000001000001011 |
b0000000000000000000000000000000000000000000000000000111111110000100000 #!
b11001 *!
b01011 +!
b0000000000000000000000000000000000000000000000000000100000011000 -!
b0000000000000000000000000000000000000000000000000000100001000100 /!
b0000000000000000000000000000000000000000000000000000000000011001 1!
b0000000000000000000000000000000000000000000000000000000000000000 3!
b0000000000000000000000000000000000000000000000000000000000001111 7!
b0000000000000000000000000000000000000000000000000000000000001111 9!
1;!
#141
#142
#143
#144
#145
0;!
#146
#147
#148
#149
#150
b0000000000000000000000000000000000000000000000000000000000110100 &
b0000000000000000000000000000000000000000000000000000000000001111 (
b01010000000000000000010110010011 ,
b000 -
0.
b000000000000000000000000000000000000000000000000000000000011000000000000101101010000010100110011 o
b000000000000000000000000000000000000000000000000000000000010110000000000000000000000000000000000000000000000000000000000000000000000000000000000000000000000000000000000000000000000000000000000000000000000000000000000000000000000000000000000000000000001100100000110010101100000000000010011100 r
b0000000000000000000000000000000000000000000000000000000000001111000000000000000000000000000000000000000000000000000000000000000001010100000 |
b0000000000000000000000000000000000000000000000000001000000001000010000 #!
b0110011 &!
b01010 )!
b01011 *!
b01010 +!
b0000000000000000000000000000000000000000000001010000100000001010 -!
b0000000000000000000000000000000000000000000001010000100000111010 /!
b0000000000000000000000000000000000000000000000000000000000000000 1!
b0000000000000000000000000000000000000000000000000000000000011001 7!
b0000000000000000000000000000000000000000000000000000000000011001 9!
1;!
#151
#152
#153
#154
#155
0;!
#156
#157
#158
#159
#160
b0000000000000000000000000000000000000000000000000000000000111000 &
b0000000000000000000000000000000000000000000000000000000000011001 (
b00000000101001011011000000100011 ,
b000000000000000000000000000000000000000000000000000000000011010001010000000000000000010110010011 o
b000000000000000000000000000000000000000000000000000000000011000000000000000000000000000000000000000000000000000000000000000000000000000000000000000000000000000000000000000000000000000000000000000000000000000000000000000000000000000000000000000000000000000001010010110101000000000000110011100 r
b0000000000000000000000000000000000000000000000000000000000011001000000000000000000000000000000000000000000000000000000000000000001011100000 |
b0000000000000000000000000000000000000000000000000000000000001111010101 #!
b0010011 &!
b0101000 (!
b00000 )!
b00000 *!
b01011 +!
b0000000000000000000000000000000000000000000000000000010100000000 -!
b0000000000000000000000000000000000000000000000000000010100110100 /!
b0000000000000000000000000000000000000000000000000000010100000000 1!
b0000000000000000000000000000000000000000000000000000000000001111 3!
b0000000000000000000000000000000000000000000000000000000000011001 5!
b0000000000000000000000000000000000000000000000000000000000101000 7!
1;!
#161
#162
#163
#164
#165
0;!
#166
#167
#168
#169
#170
b0000000000000000000000000000000000000000000000000000000000111100 &
b0000000000000000000000000000000000000000000000000000000000101000 (
b0000000000000000000000000000000000000000000000000000000000011001 *
b00000000101000000000100000010011 ,
b0000000000000000000000000000000000000000000000000000000000001111 C
b000000000000000000000000000000000000000000000000000000000011100000000000101001011011000000100011 o
b000000000000000000000000000000000000000000000000000000000011010000000000000000000000000000000000000000000000000000000000000000000000000000000000000000000000000000000000000000000000000000000000000000000000000000000000000000000000000000000000000001010000000000000000000101100001010000010011100 r
b0000000000000000000000000000000000000000000000000000000000101000000000000000000000000000000000000000000000000000000000000001100101010100000 |
b0000000000000000000000000000000000000000000000000000000000011001010111 #!
b0100011 &!
b011 '!
b0000000 (!
b01011 )!
b01010 *!
b00000 +!
b0000000000000000000000000000000000000000000001011011000000001010 -!
b0000000000000000000000000000000000000000000001011011000001000010 /!
b0000000000000000000000000000000000000000000000000000000000000000 1!
b0000000000000000000000000000000000000000000000000000000000000000 3!
b0000000000000000000000000000000000000000000000000000000000000000 5!
b0000000000000000000000000000000000000000000000000000010100000000 7!
b0000000000000000000000000000000000000000000000000000010100000000 9!
1;!
#171
#172
#173
#174
#175
0;!
#176
#177
#178
#179
#180
b0000000000000000000000000000000000000000000000000000000001000000 &
b0000000000000000000000000000000000000000000000000000010100000000 (
b0000000000000000000000000000000000000000000000000000000000000000 *
b00000000101000000000100010010011 ,
b0000000000000000000000000000000000000000000000000000000000011001 E
b000000000000000000000000000000000000000000000000000000000011110000000000101000000000100000010011 o
b000000000000000000000000000000000000000000000000000000000011100000000000000000000000000000000000000000000000000000000000000000000000000000000000000000000000000000000000000000000000000000001111000000000000000000000000000000000000000000000000000000000000000001011010100000001100000000100011001 r
b0000000000000000000000000000000000000000000000000000010100000000000000000000000000000000000000000000000000000000000000000000000001011100000 |
b0000000000000000000000000000000000000000000000000000000000101000010101 #!
b0010011 &!
b000 '!
b00000 )!
b10000 +!
b0000000000000000000000000000000000000000000000000000000000001010 -!
b0000000000000000000000000000000000000000000000000000000001000110 /!
b0000000000000000000000000000000000000000000000000000000000001010 1!
b0000000000000000000000000000000000000000000000000000010100000000 3!
b0000000000000000000000000000000000000000000000000000000000101000 5!
b0000000000000000000000000000000000000000000000000000000000000000 9!
1;!
#181
#182
#183
#184
#185
0;!
#186
#187
#188
#189
#190
b0000000000000000000000000000000000000000000000000000000001000100 &
b0000000000000000000000000000000000000000000000000000000000101000 *
b00000001000110000000011001100011 ,
b011 -
1.
b0000000000000000000000000000000000000000000000000000000000101000 C
b000000000000000000000000000000000000000000000000000000000100000000000000101000000000100010010011 o
b000000000000000000000000000000000000000000000000000000000011110000000000000000000000000000000000000000000000000000000000000000000000000000000000000000000000000000000000000000000000000000001111000000000000000000000000000000000000000000000000000000000000101000000010101000000000000000010011100 r
b0000000000000000000000000000000000000000000000000000010100000000000000000000000000000000000000000000000000000000000000000010100000000001011 |
b0000000000000000000000000000000000000000000000000000010100000000010111 #!
b10001 +!
b0000000000000000000000000000000000000000000000000000000001001010 /!
b0000000000000000000000000000000000000000000000000000000000000000 3!
b0000000000000000000000000000000000000000000000000000000000001111 5!
b0000000000000000000000000000000000000000000000000000000000001010 7!
b0000000000000000000000000000000000000000000000000000000000001010 9!
1;!
#191
#192
#193
#194
#195
0;!
#196
#197
#198
#199
#200
b0000000000000000000000000000000000000000000000000000000001001000 &
b0000000000000000000000000000000000000000000000000000000000001010 (
b0000000000000000000000000000000000000000000000000000000000001111 *
b00000110001100000000100100010011 ,
b000 -
0.
b0000000000000000000000000000000000000000000000000000010100000000 E
b000000000000000000000000000000000000000000000000000000000100010000000001000110000000011001100011 o
b000000000000000000000000000000000000000000000000000000000100000000000000000000000000000000000000000000000000000000000000000000000000000000000000000000000000000000000000000000000000000000101000000000000000000000000000000000000000000000000000000000000000101000000010101000100000000000010011100 r
b0000000000000000000000000000000000000000000000000000000000001010000000000000000000000000000000000000000000000000000000000000111110000100000 |
b0000000000000000000000000000000000000000000000000000010100000000000000 #!
b1100011 &!
b10000 )!
b10001 *!
b01100 +!
b0000000000000000000000000000000000000000000010000000100000010000 -!
b0000000000000000000000000000000000000000000010000000100001010100 /!
b0000000000000000000000000000000000000000000000000000000000000000 1!
b0000000000000000000000000000000000000000000000000000000000101000 5!
1;!
#201
#202
#203
#204
#205
0;!
#206
#207
#208
#209
#210
b0000000000000000000000000000000000000000000000000000000001001100 &
b0000000000000000000000000000000000000000000000000000000000101000 *
b00000000100000000000000001101111 ,
b000000000000000000000000000000000000000000000000000000000100100000000110001100000000100100010011 o
b000000000000000000000000000000000000000000000000000000000100010000000000000000000000000000000000000000000000000000000000000000000000000000000000000000000000000000000000000000000000000000000000000000000000000000000000000000000000000000000000000000000000000010000100010110000000000001100011000 r
b0000000000000000000000000000000000000000000000000000000000001010000000000000000000000000000000000000000000000000000000000010100010001100000 |
b0000000000000000000000000000000000000000000000000000000000001010100001 #!
b0010011 &!
b0000011 (!
b00000 )!
b00011 *!
b10010 +!
b0000000000000000000000000000000000000000000000000000100001100010 -!
b0000000000000000000000000000000000000000000000000000100010101010 /!
b0000000000000000000000000000000000000000000000000000000001100011 1!
b0000000000000000000000000000000000000000000000000000000000001010 3!
b0000000000000000000000000000000000000000000000000000000000001010 5!
b0000000000000000000000000000000000000000000000000000000000000000 9!
1;!
#211
#212
#213
#214
#215
0;!
#216
#217
#218
#219
#220
b0000000000000000000000000000000000000000000000000000000001010000 &
b0000000000000000000000000000000000000000000000000000000000001010 *
b00000010101000000000100100010011 ,
b0000000000000000000000000000000000000000000000000000000000001010 O
b000000000000000000000000000000000000000000000000000000000100110000000000100000000000000001101111 o
b000000000000000000000000000000000000000000000000000000000100100000000000000000000000000000000000000000000000000000000000000000000000000000000000000000000000000000000000000000000000000000000000000000000000000000000000000000000000000000000000000000000110001100000000111001000000000110010011100 r
b0000000000000000000000000000000000000000000000000000000000001010000000000000000000000000000000000000000000000000000000000000101001100000000 |
b0000000000000000000000000000000000000000000000000000000000001010100011 #!
b1101111 &!
b0000000 (!
b01000 *!
b00000 +!
1,!
b0000000000000000000000000000000000000000000000000000000000001000 -!
b0000000000000000000000000000000000000000000000000000000001010100 /!
b0000000000000000000000000000000000000000000000000000000000001000 1!
b0000000000000000000000000000000000000000000000000000000000000000 3!
b0000000000000000000000000000000000000000000000000000000000000000 5!
b0000000000000000000000000000000000000000000000000000000001100011 7!
b0000000000000000000000000000000000000000000000000000000001100011 9!
1;!
#221
#222
#223
#224
#225
0;!
#226
#227
#228
#229
#230
b0000000000000000000000000000000000000000000000000000000001010100 &
b0000000000000000000000000000000000000000000000000000000001100011 (
b0000000000000000000000000000000000000000000000000000000000000000 *
b00000000000000000001011100110111 ,
b0000000000000000000000000000000000000000000000000000000000001010 Q
b000000000000000000000000000000000000000000000000000000000000000000000000000000000000000000000000 o
b000000000000000000000000000000000000000000000000000000000000000000000000000000000000000000000000000000000000000000000000000000000000000000000000000000000000000000000000000000000000000000000000000000000000000000000000000000000000000000000000000000000000000000000000000000000000000000000000000 r
b0000000000000000000000000000000000000000000000000000000001100011000000000000000000000000000000000000000000000000000000000000000010010100000 |
b0000000000000000000000000000000000000000000000000000000000001010011000 #!
b0000000 &!
b00000 *!
0,!
b0000000000000000000000000000000000000000000000000000000000000000 -!
b0000000000000000000000000000000000000000000000000000000000000000 /!
b0000000000000000000000000000000000000000000000000000000000000000 1!
b0000000000000000000000000000000000000000000000000000000000000000 7!
b0000000000000000000000000000000000000000000000000000000000000000 9!
1;!
#231
#232
#233
#234
#235
0;!
#236
#237
#238
#239
#240
b0000000000000000000000000000000000000000000000000000000001011000 &
b0000000000000000000000000000000000000000000000000000000000000000 (
b00000000100000000000011110010011 ,
b000000000000000000000000000000000000000000000000000000000101010000000000000000000001011100110111 o
b0000000000000000000000000000000000000000000000000000000000000000000000000000000000000000000000000000000000000000000000000000000000000000000 |
b0000000000000000000000000000000000000000000000000000000001100011100101 #!
b0110111 &!
b001 '!
b01110 +!
b0000000000000000000000000000000000000000000000000001000000000000 -!
b0000000000000000000000000000000000000000000000000001000001010100 /!
b0000000000000000000000000000000000000000000000000001000000000000 1!
1;!
#241
#242
#243
#244
#245
0;!
#246
#247
#248
#249
#250
b0000000000000000000000000000000000000000000000000000000001011100 &
b00100000111001111010011010110011 ,
b0000000000000000000000000000000000000000000000000000000001100011 S
b000000000000000000000000000000000000000000000000000000000101100000000000100000000000011110010011 o
b000000000000000000000000000000000000000000000000000000000101010000000000000000000000000000000000000000000000000000000000000000000000000000000000000000000000000000000000000000000000000000000000000000000000000000000000000000000000000000000000000100000000000000000000000111000100000000110111100 r
b0000000000000000000000000000000000000000000000000000000000000000000000 #!
b0010011 &!
b000 '!
b01000 *!
b01111 +!
b0000000000000000000000000000000000000000000000000000000000001000 -!
b0000000000000000000000000000000000000000000000000000000001100000 /!
b0000000000000000000000000000000000000000000000000000000000001000 1!
b0000000000000000000000000000000000000000000000000001000000000000 7!
b0000000000000000000000000000000000000000000000000001000000000000 9!
1;!
#251
#252
#253
#254
#255
0;!
#256
#257
#258
#259
#260
b0000000000000000000000000000000000000000000000000000000001100000 &
b0000000000000000000000000000000000000000000000000001000000000000 (
b00000000000000000010011100110111 ,
b001 -
b000000000000000000000000000000000000000000000000000000000101110000100000111001111010011010110011 o
b000000000000000000000000000000000000000000000000000000000101100000000000000000000000000000000000000000000000000000000000000000000000000000000000000000000000000000000000000000000000000000000000000000000000000000000000000000000000000000000000000000000000100000000010000111100000000000010011100 r
b0000000000000000000000000000000000000000000000000001000000000000000000000000000000000000000000000000000000000000000000000000000001110100001 |
b0110011 &!
b010 '!
b0010000 (!
b01111 )!
b01110 *!
b01101 +!
b0000000000000000000000000000000000000000000001111010001000001110 -!
b0000000000000000000000000000000000000000000001111010001001101010 /!
b0000000000000000000000000000000000000000000000000000000000000000 1!
b0000000000000000000000000000000000000000000000000000000000001000 7!
b0000000000000000000000000000000000000000000000000000000000001000 9!
1;!
#261
#262
#263
#264
#265
0;!
#266
#267
#268
#269
#270
b0000000000000000000000000000000000000000000000000000000001100100 &
b0000000000000000000000000000000000000000000000000000000000001000 (
b00000000010100000000011110010011 ,
b000 -
b000000000000000000000000000000000000000000000000000000000110000000000000000000000010011100110111 o
b000000000000000000000000000000000000000000000000000000000101110000000000000000000000000000000000000000000000000000000000000000000000000000000000000000000000000000000000000000000000000000000000000000000000000000000000000000000000000000000000000000000000000001111011100110101000100000110011100 r
b0000000000000000000000000000000000000000000000000000000000001000000000000000000000000000000000000000000000000000000000000000000001111100000 |
b0000000000000000000000000000000000000000000000000001000000000000011101 #!
b0110111 &!
b0000000 (!
b00000 )!
b00000 *!
b01110 +!
b0000000000000000000000000000000000000000000000000010000000000000 -!
b0000000000000000000000000000000000000000000000000010000001100000 /!
b0000000000000000000000000000000000000000000000000010000000000000 1!
b0000000000000000000000000000000000000000000000000000000000001000 3!
b0000000000000000000000000000000000000000000000000001000000000000 5!
b0000000000000000000000000000000000000000000000000001000000010000 7!
b0000000000000000000000000000000000000000000000000001000000000000 9!
1;!
#271
#272
#273
#274
#275
0;!
#276
#277
#278
#279
