processor.vcd
$version Generated by VerilatedVcd $end
$date Mon Feb  9 01:14:12 2026
 $end
$timescale   1ps $end

 $scope module TOP $end
  $var wire  1 .! clk $end
  $var wire  1 /! rst_n $end
  $scope module tb_processor $end
   $var wire  1 .! clk $end
   $var wire 64 ' dmem_addr [63:0] $end
   $var wire 64 0! dmem_rdata [63:0] $end
   $var wire  3 , dmem_size [2:0] $end
   $var wire 64 ) dmem_wdata [63:0] $end
   $var wire  1 - dmem_we $end
   $var wire  1 $ halt $end
   $var wire 32 2! halt_counter [31:0] $end
   $var wire 64 % imem_addr [63:0] $end
   $var wire 32 + instr [31:0] $end
   $var wire  1 /! rst_n $end
   $scope module dmem $end
    $var wire 64 ' addr [63:0] $end
    $var wire  1 .! clk $end
    $var wire 64 0! rdata [63:0] $end
    $var wire 64 ) wdata [63:0] $end
    $var wire  1 - we $end
   $upscope $end
   $scope module dut $end
    $var wire 64 J alu_out [63:0] $end
    $var wire  1 .! clk $end
    $var wire  3 C dec_funct3 [2:0] $end
    $var wire  7 D dec_funct7 [6:0] $end
    $var wire  7 B dec_opcode [6:0] $end
    $var wire  5 G dec_rd [4:0] $end
    $var wire  5 E dec_rs1 [4:0] $end
    $var wire  5 F dec_rs2 [4:0] $end
    $var wire 64 ' dmem_addr [63:0] $end
    $var wire 64 0! dmem_rdata [63:0] $end
    $var wire  3 , dmem_size [2:0] $end
    $var wire 64 ) dmem_wdata [63:0] $end
    $var wire  1 - dmem_we $end
    $var wire 139 : ex_mem [138:0] $end
    $var wire  1 $ halt $end
    $var wire 281 1 id_ex [280:0] $end
    $var wire 96 . if_id [95:0] $end
    $var wire 64 % imem_addr [63:0] $end
    $var wire 32 + imem_instr [31:0] $end
    $var wire 64 H imm_gen [63:0] $end
    $var wire 70 ? mem_wb [69:0] $end
    $var wire 64 % pc_reg [63:0] $end
    $var wire 64 L reg_file(0) [63:0] $end
    $var wire 64 N reg_file(1) [63:0] $end
    $var wire 64 ` reg_file(10) [63:0] $end
    $var wire 64 b reg_file(11) [63:0] $end
    $var wire 64 d reg_file(12) [63:0] $end
    $var wire 64 f reg_file(13) [63:0] $end
    $var wire 64 h reg_file(14) [63:0] $end
    $var wire 64 j reg_file(15) [63:0] $end
    $var wire 64 l reg_file(16) [63:0] $end
    $var wire 64 n reg_file(17) [63:0] $end
    $var wire 64 p reg_file(18) [63:0] $end
    $var wire 64 r reg_file(19) [63:0] $end
    $var wire 64 P reg_file(2) [63:0] $end
    $var wire 64 t reg_file(20) [63:0] $end
    $var wire 64 v reg_file(21) [63:0] $end
    $var wire 64 x reg_file(22) [63:0] $end
    $var wire 64 z reg_file(23) [63:0] $end
    $var wire 64 | reg_file(24) [63:0] $end
    $var wire 64 ~ reg_file(25) [63:0] $end
    $var wire 64 "! reg_file(26) [63:0] $end
    $var wire 64 $! reg_file(27) [63:0] $end
    $var wire 64 &! reg_file(28) [63:0] $end
    $var wire 64 (! reg_file(29) [63:0] $end
    $var wire 64 R reg_file(3) [63:0] $end
    $var wire 64 *! reg_file(30) [63:0] $end
    $var wire 64 ,! reg_file(31) [63:0] $end
    $var wire 64 T reg_file(4) [63:0] $end
    $var wire 64 V reg_file(5) [63:0] $end
    $var wire 64 X reg_file(6) [63:0] $end
    $var wire 64 Z reg_file(7) [63:0] $end
    $var wire 64 \ reg_file(8) [63:0] $end
    $var wire 64 ^ reg_file(9) [63:0] $end
    $var wire  1 /! rst_n $end
   $upscope $end
   $scope module imem $end
    $var wire 64 % addr [63:0] $end
    $var wire 32 + instr [31:0] $end
    $scope module unnamedblk1 $end
     $var wire 32 # i [31:0] $end
    $upscope $end
   $upscope $end
   $scope module unnamedblk1 $end
    $var wire 32 3! i [31:0] $end
   $upscope $end
  $upscope $end
 $upscope $end
$enddefinitions $end


#0
b00000000000000000100000000000000 #
0$
b0000000000000000000000000000000000000000000000000000000000000000 %
b0000000000000000000000000000000000000000000000000000000000000000 '
b0000000000000000000000000000000000000000000000000000000000000000 )
b00000000000000000001000100010111 +
b000 ,
0-
b000000000000000000000000000000000000000000000000000000000000000000000000000000000000000000000000 .
b00000000000000000000000000000000000000000000000000000000000000000000000000000000000000000000000000000000000000000000000000000000000000000000000000000000000000000000000000000000000000000000000000000000000000000000000000000000000000000000000000000000000000000000000000000000000000000 1
b0000000000000000000000000000000000000000000000000000000000000000000000000000000000000000000000000000000000000000000000000000000000000000000 :
b0000000000000000000000000000000000000000000000000000000000000000000000 ?
b0000000 B
b000 C
b0000000 D
b00000 E
b00000 F
b00000 G
b0000000000000000000000000000000000000000000000000000000000000000 H
b0000000000000000000000000000000000000000000000000000000000000000 J
b0000000000000000000000000000000000000000000000000000000000000000 L
b0000000000000000000000000000000000000000000000000000000000000000 N
b0000000000000000000000000000000000000000000000000000000000000000 P
b0000000000000000000000000000000000000000000000000000000000000000 R
b0000000000000000000000000000000000000000000000000000000000000000 T
b0000000000000000000000000000000000000000000000000000000000000000 V
b0000000000000000000000000000000000000000000000000000000000000000 X
b0000000000000000000000000000000000000000000000000000000000000000 Z
b0000000000000000000000000000000000000000000000000000000000000000 \
b0000000000000000000000000000000000000000000000000000000000000000 ^
b0000000000000000000000000000000000000000000000000000000000000000 `
b0000000000000000000000000000000000000000000000000000000000000000 b
b0000000000000000000000000000000000000000000000000000000000000000 d
b0000000000000000000000000000000000000000000000000000000000000000 f
b0000000000000000000000000000000000000000000000000000000000000000 h
b0000000000000000000000000000000000000000000000000000000000000000 j
b0000000000000000000000000000000000000000000000000000000000000000 l
b0000000000000000000000000000000000000000000000000000000000000000 n
b0000000000000000000000000000000000000000000000000000000000000000 p
b0000000000000000000000000000000000000000000000000000000000000000 r
b0000000000000000000000000000000000000000000000000000000000000000 t
b0000000000000000000000000000000000000000000000000000000000000000 v
b0000000000000000000000000000000000000000000000000000000000000000 x
b0000000000000000000000000000000000000000000000000000000000000000 z
b0000000000000000000000000000000000000000000000000000000000000000 |
b0000000000000000000000000000000000000000000000000000000000000000 ~
b0000000000000000000000000000000000000000000000000000000000000000 "!
b0000000000000000000000000000000000000000000000000000000000000000 $!
b0000000000000000000000000000000000000000000000000000000000000000 &!
b0000000000000000000000000000000000000000000000000000000000000000 (!
b0000000000000000000000000000000000000000000000000000000000000000 *!
b0000000000000000000000000000000000000000000000000000000000000000 ,!
1.!
0/!
b0000000000000000000000000000000000000000000000000000000000000000 0!
b00000000000000000000000000000000 2!
b00000000000000000000000000000000 3!
#1
#2
#3
#4
#5
0.!
#6
#7
#8
#9
#10
1.!
#11
#12
#13
#14
#15
0.!
#16
#17
#18
#19
#20
1.!
#21
#22
#23
#24
#25
0.!
#26
#27
#28
#29
#30
1.!
#31
#32
#33
#34
#35
0.!
#36
#37
#38
#39
#40
1.!
#41
#42
#43
#44
#45
0.!
#46
#47
#48
#49
#50
b0000000000000000000000000000000000000000000000000000000000000100 %
b00000000000000010000000100010011 +
b000000000000000000000000000000000000000000000000000000000000000000000000000000000001000100010111 .
b0010111 B
b001 C
b00010 G
b0000000000000000000000000000000000000000000000000001000000000000 H
1.!
1/!
#51
#52
#53
#54
#55
0.!
#56
#57
#58
#59
#60
b0000000000000000000000000000000000000000000000000000000000001000 %
b00000001000000000000000011101111 +
b000000000000000000000000000000000000000000000000000000000000010000000000000000010000000100010011 .
b00000000000000000000000000000000000000000000000000000000000000000000000000000000000000000000000000000000000000000000000000000000000000000000000000000000000000000000000000000000000000000000000000000000000000000000000000000000000000000000000000010000000000000001000100000000010111100 1
b0010011 B
b000 C
b00010 E
b0000000000000000000000000000000000000000000000000000000000000000 H
b0000000000000000000000000000000000000000000000000001000000000000 J
1.!
#61
#62
#63
#64
#65
0.!
#66
#67
#68
#69
#70
b0000000000000000000000000000000000000000000000000000000000001100 %
b0000000000000000000000000000000000000000000000000001000000000000 '
b00000000000000000000000001101111 +
b001 ,
b000000000000000000000000000000000000000000000000000000000000100000000001000000000000000011101111 .
b00000000000000000000000000000000000000000000000000000000000001000000000000000000000000000000000000000000000000000000000000000000000000000000000000000000000000000000000000000000000000000000000000000000000000000000000000000000000000000000000000000000000000000001000000000000010011100 1
b0000000000000000000000000000000000000000000000000001000000000000000000000000000000000000000000000000000000000000000000000000000000010100001 :
b1101111 B
b00000 E
b10000 F
b00001 G
b0000000000000000000000000000000000000000000000000000000000000000 J
1.!
#71
#72
#73
#74
#75
0.!
#76
#77
#78
#79
#80
1$
b0000000000000000000000000000000000000000000000000000000000010000 %
b0000000000000000000000000000000000000000000000000000000000000000 '
b000 ,
b000000000000000000000000000000000000000000000000000000000000110000000000000000000000000001101111 .
b00000000000000000000000000000000000000000000000000000000000010000000000000000000000000000000000000000000000000000000000000000000000000000000000000000000000000000000000000000000000000000000000000000000000000000000000000000000000000000000000000000000000000000000100000000001101111000 1
b0000000000000000000000000000000000000000000000000000000000000000000000000000000000000000000000000000000000000000000000000000000000010100000 :
b0000000000000000000000000000000000000000000000000001000000000000000101 ?
b00000 F
b00000 G
1.!
#81
#82
#83
#84
#85
0.!
#86
#87
#88
#89
#90
b00000000000000000000000000000000000000000000000000000000000011000000000000000000000000000000000000000000000000000000000000000000000000000000000000000000000000000000000000000000000000000000000000000000000000000000000000000000000000000000000000000000000000000000000000000001101111000 1
b0000000000000000000000000000000000000000000000000000000000000000000000000000000000000000000000000000000000000000000000000000000000001000000 :
b0000000000000000000000000000000000000000000000000000000000000000000101 ?
b0000000000000000000000000000000000000000000000000001000000000000 P
1.!
b00000000000000000000000000000001 2!
#91
#92
#93
#94
#95
0.!
#96
#97
#98
#99
#100
b0000000000000000000000000000000000000000000000000000000000000000000000000000000000000000000000000000000000000000000000000000000000000000000 :
b0000000000000000000000000000000000000000000000000000000000000000000010 ?
b0000000000000000000000000000000000000000000000000000000000000000 P
1.!
b00000000000000000000000000000010 2!
#101
#102
#103
#104
#105
0.!
#106
#107
#108
#109
#110
b0000000000000000000000000000000000000000000000000000000000000000000000 ?
1.!
b00000000000000000000000000000011 2!
#111
#112
#113
#114
#115
0.!
#116
#117
#118
#119
#120
1.!
b00000000000000000000000000000100 2!
#121
#122
#123
#124
#125
0.!
#126
#127
#128
#129
#130
1.!
b00000000000000000000000000000101 2!
#131
#132
#133
#134
#135
0.!
#136
#137
#138
#139
#140
1.!
b00000000000000000000000000000110 2!
#141
#142
#143
#144
#145
0.!
#146
#147
#148
#149
#150
1.!
b00000000000000000000000000000111 2!
#151
#152
#153
#154
#155
0.!
#156
#157
#158
#159
#160
1.!
b00000000000000000000000000001000 2!
#161
#162
#163
#164
#165
0.!
#166
#167
#168
#169
#170
1.!
b00000000000000000000000000001001 2!
#171
#172
#173
#174
#175
0.!
#176
#177
#178
#179
#180
1.!
b00000000000000000000000000001010 2!
#181
#182
#183
#184
#185
0.!
#186
#187
#188
#189
#190
1.!
b00000000000000000000000000100000 3!
